sim.vcd
$date
	Thu May 26 21:07:10 2022
$end
$version
	Icarus Verilog
$end
$timescale
	10ps
$end
$scope module riscv_tb $end
$var reg 32 ! LAST_PC [31:0] $end
$var reg 1 " clk $end
$var reg 1 # rstn $end
$var integer 32 $ fd [31:0] $end
$var integer 32 % i [31:0] $end
$var integer 32 & n_instructions [31:0] $end
$var integer 32 ' position [31:0] $end
$scope module my_cpu $end
$var wire 32 ( IF_PC [31:0] $end
$var wire 1 " clk $end
$var wire 32 ) forwarded_alu_second [31:0] $end
$var wire 32 * lui_val [31:0] $end
$var wire 1 + real_ID_flush $end
$var wire 1 # rstn $end
$var wire 1 , stall $end
$var wire 32 - auipc_val [31:0] $end
$var wire 32 . alu_in_2 [31:0] $end
$var wire 32 / alu_in_1 [31:0] $end
$var wire 32 0 WB_tmp_write_data [31:0] $end
$var wire 1 1 WB_regwrite $end
$var wire 32 2 WB_readdata [31:0] $end
$var wire 5 3 WB_rd [4:0] $end
$var wire 7 4 WB_opcode [6:0] $end
$var wire 1 5 WB_memtoreg $end
$var wire 2 6 WB_jump [1:0] $end
$var wire 32 7 WB_alu_result [31:0] $end
$var wire 32 8 WB_PC_PLUS_4 [31:0] $end
$var wire 32 9 NEXT_PC [31:0] $end
$var wire 32 : MEM_writedata [31:0] $end
$var wire 32 ; MEM_write_data_real [31:0] $end
$var wire 1 < MEM_taken $end
$var wire 5 = MEM_rs2 [4:0] $end
$var wire 1 > MEM_regwrite $end
$var wire 5 ? MEM_rd [4:0] $end
$var wire 7 @ MEM_opcode [6:0] $end
$var wire 1 A MEM_memwrite $end
$var wire 1 B MEM_memtoreg $end
$var wire 1 C MEM_memread $end
$var wire 32 D MEM_mem_read_data [31:0] $end
$var wire 2 E MEM_jump [1:0] $end
$var wire 3 F MEM_funct3 [2:0] $end
$var wire 32 G MEM_alu_result [31:0] $end
$var wire 32 H MEM_PC_target [31:0] $end
$var wire 32 I MEM_PC_PLUS_4 [31:0] $end
$var wire 32 J IF_instruction [31:0] $end
$var wire 1 K IF_flush $end
$var wire 32 L IF_PC_PLUS_4 [31:0] $end
$var wire 32 M ID_sextimm [31:0] $end
$var wire 5 N ID_rs2 [4:0] $end
$var wire 5 O ID_rs1 [4:0] $end
$var wire 1 P ID_reg_write_tmp $end
$var wire 1 Q ID_reg_write $end
$var wire 32 R ID_readdata2 [31:0] $end
$var wire 32 S ID_readdata1 [31:0] $end
$var wire 5 T ID_rd [4:0] $end
$var wire 7 U ID_opcode [6:0] $end
$var wire 1 V ID_mem_write_tmp $end
$var wire 1 W ID_mem_write $end
$var wire 1 X ID_mem_to_reg $end
$var wire 1 Y ID_mem_read $end
$var wire 2 Z ID_jump [1:0] $end
$var wire 32 [ ID_instruction [31:0] $end
$var wire 7 \ ID_funct7 [6:0] $end
$var wire 3 ] ID_funct3 [2:0] $end
$var wire 1 ^ ID_flush $end
$var wire 10 _ ID_control [9:0] $end
$var wire 1 ` ID_branch $end
$var wire 1 a ID_alu_src $end
$var wire 2 b ID_alu_op [1:0] $end
$var wire 32 c ID_PC_PLUS_4 [31:0] $end
$var wire 32 d ID_PC [31:0] $end
$var wire 1 e EX_taken $end
$var wire 32 f EX_sextimm [31:0] $end
$var wire 5 g EX_rs2 [4:0] $end
$var wire 5 h EX_rs1 [4:0] $end
$var wire 1 i EX_regwrite $end
$var wire 32 j EX_readdata2 [31:0] $end
$var wire 32 k EX_readdata1 [31:0] $end
$var wire 5 l EX_rd [4:0] $end
$var wire 7 m EX_opcode [6:0] $end
$var wire 1 n EX_memwrite $end
$var wire 1 o EX_memtoreg $end
$var wire 1 p EX_memread $end
$var wire 2 q EX_jump [1:0] $end
$var wire 7 r EX_funct7 [6:0] $end
$var wire 3 s EX_funct3 [2:0] $end
$var wire 1 t EX_forwardM $end
$var wire 10 u EX_control [9:0] $end
$var wire 1 v EX_check $end
$var wire 1 w EX_branch $end
$var wire 1 x EX_alusrc $end
$var wire 2 y EX_aluop [1:0] $end
$var wire 32 z EX_Writedata [31:0] $end
$var wire 32 { EX_PC_branch_target [31:0] $end
$var wire 32 | EX_PC_PLUS_4 [31:0] $end
$var wire 32 } EX_PC [31:0] $end
$var wire 2 ~ EX_ForwardS [1:0] $end
$var wire 2 !" EX_ForwardB [1:0] $end
$var wire 2 "" EX_ForwardA [1:0] $end
$var wire 32 #" EX_ALU_result_tmp [31:0] $end
$var wire 32 $" EX_ALU_result [31:0] $end
$var wire 32 %" EX_ALU_in [31:0] $end
$var wire 4 &" EX_ALU_func [3:0] $end
$var reg 2 '" ALU_result_sel [1:0] $end
$var reg 1 (" JALR_dependence $end
$var reg 32 )" PC [31:0] $end
$var reg 32 *" WB_write_data [31:0] $end
$var reg 32 +" forwarded_alu_second_tmp [31:0] $end
$var reg 2 ," maskmode [1:0] $end
$var reg 1 -" sext $end
$scope module EX_write_data_mux $end
$var wire 32 ." in2 [31:0] $end
$var wire 32 /" in3 [31:0] $end
$var wire 2 0" select [1:0] $end
$var wire 32 1" in1 [31:0] $end
$var reg 32 2" out [31:0] $end
$upscope $end
$scope module alu_in_1_mux $end
$var wire 32 3" in2 [31:0] $end
$var wire 32 4" in3 [31:0] $end
$var wire 2 5" select [1:0] $end
$var wire 32 6" in1 [31:0] $end
$var reg 32 7" out [31:0] $end
$upscope $end
$scope module alu_in_2_mux $end
$var wire 32 8" in2 [31:0] $end
$var wire 32 9" in3 [31:0] $end
$var wire 2 :" select [1:0] $end
$var wire 32 ;" in1 [31:0] $end
$var reg 32 <" out [31:0] $end
$upscope $end
$scope module m_alu $end
$var wire 32 =" in_a [31:0] $end
$var wire 32 >" in_b [31:0] $end
$var wire 4 ?" alu_func [3:0] $end
$var reg 1 v check $end
$var reg 32 @" result [31:0] $end
$upscope $end
$scope module m_alu_control $end
$var wire 7 A" funct7 [6:0] $end
$var wire 3 B" funct3 [2:0] $end
$var wire 4 C" funct [3:0] $end
$var wire 2 D" alu_op [1:0] $end
$var reg 4 E" alu_func [3:0] $end
$upscope $end
$scope module m_alu_mux $end
$var wire 1 x select $end
$var wire 32 F" in2 [31:0] $end
$var wire 32 G" in1 [31:0] $end
$var reg 32 H" out [31:0] $end
$upscope $end
$scope module m_alu_result_mux $end
$var wire 32 I" in1 [31:0] $end
$var wire 32 J" in2 [31:0] $end
$var wire 32 K" in3 [31:0] $end
$var wire 2 L" select [1:0] $end
$var reg 32 M" out [31:0] $end
$upscope $end
$scope module m_branch_control $end
$var wire 1 v check $end
$var wire 1 w branch $end
$var reg 1 e taken $end
$upscope $end
$scope module m_branch_target_adder $end
$var wire 32 N" in_b [31:0] $end
$var wire 32 O" in_a [31:0] $end
$var reg 32 P" result [31:0] $end
$upscope $end
$scope module m_control $end
$var wire 7 Q" opcode [6:0] $end
$var wire 1 P reg_write $end
$var wire 1 V mem_write $end
$var wire 1 X mem_to_reg $end
$var wire 1 Y mem_read $end
$var wire 2 R" jump [1:0] $end
$var wire 1 ^ id_flush $end
$var wire 1 ` branch $end
$var wire 1 a alu_src $end
$var wire 2 S" alu_op [1:0] $end
$var reg 10 T" controls [9:0] $end
$upscope $end
$scope module m_data_memory $end
$var wire 1 " clk $end
$var wire 2 U" maskmode [1:0] $end
$var wire 1 -" sext $end
$var wire 32 V" write_data [31:0] $end
$var wire 1 A mem_write $end
$var wire 1 C mem_read $end
$var wire 13 W" address_internal [12:0] $end
$var wire 32 X" address [31:0] $end
$var reg 32 Y" read_data [31:0] $end
$upscope $end
$scope module m_exmem_reg $end
$var wire 1 " clk $end
$var wire 32 Z" ex_alu_result [31:0] $end
$var wire 32 [" ex_pc_target [31:0] $end
$var wire 1 e ex_taken $end
$var wire 32 \" ex_writedata [31:0] $end
$var wire 5 ]" ex_rs2 [4:0] $end
$var wire 1 i ex_regwrite $end
$var wire 5 ^" ex_rd [4:0] $end
$var wire 32 _" ex_pc_plus_4 [31:0] $end
$var wire 7 `" ex_opcode [6:0] $end
$var wire 1 n ex_memwrite $end
$var wire 1 o ex_memtoreg $end
$var wire 1 p ex_memread $end
$var wire 2 a" ex_jump [1:0] $end
$var wire 3 b" ex_funct3 [2:0] $end
$var reg 32 c" mem_alu_result [31:0] $end
$var reg 3 d" mem_funct3 [2:0] $end
$var reg 2 e" mem_jump [1:0] $end
$var reg 1 C mem_memread $end
$var reg 1 B mem_memtoreg $end
$var reg 1 A mem_memwrite $end
$var reg 7 f" mem_opcode [6:0] $end
$var reg 32 g" mem_pc_plus_4 [31:0] $end
$var reg 32 h" mem_pc_target [31:0] $end
$var reg 5 i" mem_rd [4:0] $end
$var reg 1 > mem_regwrite $end
$var reg 5 j" mem_rs2 [4:0] $end
$var reg 1 < mem_taken $end
$var reg 32 k" mem_writedata [31:0] $end
$upscope $end
$scope module m_forwarding $end
$var wire 7 l" mem_opcode [6:0] $end
$var wire 5 m" mem_rd [4:0] $end
$var wire 5 n" mem_rs2 [4:0] $end
$var wire 5 o" wb_rd [4:0] $end
$var wire 7 p" wb_opcode [6:0] $end
$var wire 5 q" ex_rs2 [4:0] $end
$var wire 5 r" ex_rs1 [4:0] $end
$var wire 7 s" ex_opcode [6:0] $end
$var reg 2 t" forwardA [1:0] $end
$var reg 2 u" forwardB [1:0] $end
$var reg 2 v" forwardS [1:0] $end
$var reg 1 t forwardmem $end
$upscope $end
$scope module m_hazard $end
$var wire 32 w" ex_alu_result [31:0] $end
$var wire 1 e ex_branch_taken $end
$var wire 32 x" ex_branch_target [31:0] $end
$var wire 1 V id_mem_write $end
$var wire 7 y" id_opcode [6:0] $end
$var wire 1 P id_reg_write $end
$var wire 5 z" id_rs1 [4:0] $end
$var wire 5 {" id_rs2 [4:0] $end
$var wire 32 |" if_pc_plus_4 [31:0] $end
$var wire 1 K if_flush $end
$var wire 5 }" ex_rd [4:0] $end
$var wire 7 ~" ex_opcode [6:0] $end
$var wire 2 !# ex_jump [1:0] $end
$var reg 1 "# Load_dep_1 $end
$var reg 1 ## Load_dep_2 $end
$var reg 32 $# NEXT_PC [31:0] $end
$var reg 1 %# ex_mem_flush $end
$var reg 1 W id_mem_write_real $end
$var reg 1 Q id_reg_write_real $end
$var reg 1 K if_flush_tmp $end
$var reg 1 , stall $end
$upscope $end
$scope module m_idex_reg $end
$var wire 1 " clk $end
$var wire 1 + flush $end
$var wire 2 &# id_aluop [1:0] $end
$var wire 1 a id_alusrc $end
$var wire 1 ` id_branch $end
$var wire 3 '# id_funct3 [2:0] $end
$var wire 7 (# id_funct7 [6:0] $end
$var wire 2 )# id_jump [1:0] $end
$var wire 1 Y id_memread $end
$var wire 1 X id_memtoreg $end
$var wire 1 W id_memwrite $end
$var wire 7 *# id_opcode [6:0] $end
$var wire 5 +# id_rd [4:0] $end
$var wire 1 Q id_regwrite $end
$var wire 5 ,# id_rs1 [4:0] $end
$var wire 5 -# id_rs2 [4:0] $end
$var wire 1 , stall $end
$var wire 32 .# id_sextimm [31:0] $end
$var wire 32 /# id_readdata2 [31:0] $end
$var wire 32 0# id_readdata1 [31:0] $end
$var wire 32 1# id_pc_plus_4 [31:0] $end
$var wire 32 2# id_PC [31:0] $end
$var reg 32 3# ex_PC [31:0] $end
$var reg 2 4# ex_aluop [1:0] $end
$var reg 1 x ex_alusrc $end
$var reg 1 w ex_branch $end
$var reg 3 5# ex_funct3 [2:0] $end
$var reg 7 6# ex_funct7 [6:0] $end
$var reg 2 7# ex_jump [1:0] $end
$var reg 1 p ex_memread $end
$var reg 1 o ex_memtoreg $end
$var reg 1 n ex_memwrite $end
$var reg 7 8# ex_opcode [6:0] $end
$var reg 32 9# ex_pc_plus_4 [31:0] $end
$var reg 5 :# ex_rd [4:0] $end
$var reg 32 ;# ex_readdata1 [31:0] $end
$var reg 32 <# ex_readdata2 [31:0] $end
$var reg 1 i ex_regwrite $end
$var reg 5 =# ex_rs1 [4:0] $end
$var reg 5 ># ex_rs2 [4:0] $end
$var reg 32 ?# ex_sextimm [31:0] $end
$upscope $end
$scope module m_ifid_reg $end
$var wire 1 " clk $end
$var wire 32 @# if_PC [31:0] $end
$var wire 1 K if_flush $end
$var wire 1 , stall $end
$var wire 32 A# if_pc_plus_4 [31:0] $end
$var wire 32 B# if_instruction [31:0] $end
$var reg 32 C# id_PC [31:0] $end
$var reg 1 ^ id_flush $end
$var reg 32 D# id_instruction [31:0] $end
$var reg 32 E# id_pc_plus_4 [31:0] $end
$upscope $end
$scope module m_immediate_generator $end
$var wire 32 F# instruction [31:0] $end
$var wire 7 G# opcode [6:0] $end
$var reg 32 H# sextimm [31:0] $end
$upscope $end
$scope module m_instruction_memory $end
$var wire 32 I# address [31:0] $end
$var reg 32 J# instruction [31:0] $end
$upscope $end
$scope module m_memwb_reg $end
$var wire 1 " clk $end
$var wire 32 K# mem_alu_result [31:0] $end
$var wire 2 L# mem_jump [1:0] $end
$var wire 1 B mem_memtoreg $end
$var wire 7 M# mem_opcode [6:0] $end
$var wire 32 N# mem_pc_plus_4 [31:0] $end
$var wire 5 O# mem_rd [4:0] $end
$var wire 32 P# mem_readdata [31:0] $end
$var wire 1 > mem_regwrite $end
$var reg 32 Q# wb_alu_result [31:0] $end
$var reg 2 R# wb_jump [1:0] $end
$var reg 1 5 wb_memtoreg $end
$var reg 7 S# wb_opcode [6:0] $end
$var reg 32 T# wb_pc_plus_4 [31:0] $end
$var reg 5 U# wb_rd [4:0] $end
$var reg 32 V# wb_readdata [31:0] $end
$var reg 1 1 wb_regwrite $end
$upscope $end
$scope module m_mux_2x1 $end
$var wire 32 W# in1 [31:0] $end
$var wire 32 X# in2 [31:0] $end
$var wire 1 5 select $end
$var reg 32 Y# out [31:0] $end
$upscope $end
$scope module m_pc_plus_4_adder $end
$var wire 32 Z# in_a [31:0] $end
$var wire 32 [# in_b [31:0] $end
$var reg 32 \# result [31:0] $end
$upscope $end
$scope module m_register_file $end
$var wire 1 " clk $end
$var wire 32 ]# readdata1 [31:0] $end
$var wire 32 ^# readdata2 [31:0] $end
$var wire 5 _# readreg1 [4:0] $end
$var wire 5 `# readreg2 [4:0] $end
$var wire 1 1 wen $end
$var wire 32 a# writedata [31:0] $end
$var wire 5 b# writereg [4:0] $end
$upscope $end
$scope module m_write_data_mux $end
$var wire 32 c# in1 [31:0] $end
$var wire 32 d# in2 [31:0] $end
$var wire 1 t select $end
$var reg 32 e# out [31:0] $end
$upscope $end
$upscope $end
$upscope $end
$enddefinitions $end
#0
$dumpvars
bx e#
bx d#
bx c#
bx b#
bx a#
bx `#
bx _#
bx ^#
bx ]#
bx \#
bx [#
b100 Z#
bx Y#
bx X#
bx W#
bx V#
bx U#
bx T#
bx S#
bx R#
bx Q#
b0 P#
bx O#
bx N#
bx M#
bx L#
bx K#
bx J#
bx I#
bx H#
bx G#
bx F#
bx E#
bx D#
bx C#
bx B#
bx A#
bx @#
bx ?#
bx >#
bx =#
bx <#
bx ;#
bx :#
bx 9#
bx 8#
bx 7#
bx 6#
bx 5#
bx 4#
bx 3#
bx 2#
bx 1#
bx 0#
bx /#
bx .#
bx -#
bx ,#
bx +#
bx *#
bx )#
bx (#
bx '#
bx &#
x%#
bx $#
x##
x"#
bx !#
bx ~"
bx }"
bx |"
bx {"
bx z"
bx y"
bx x"
bx w"
bx v"
bx u"
bx t"
bx s"
bx r"
bx q"
bx p"
bx o"
bx n"
bx m"
bx l"
bx k"
bx j"
bx i"
bx h"
bx g"
bx f"
bx e"
bx d"
bx c"
bx b"
bx a"
bx `"
bx _"
bx ^"
bx ]"
bx \"
bx ["
bx Z"
b0 Y"
bx X"
bx W"
bx V"
bx U"
bx T"
bx S"
bx R"
bx Q"
bx P"
bx O"
bx N"
bx M"
bx L"
bx K"
bx J"
bx I"
bx H"
bx G"
bx F"
bx E"
bx D"
bx C"
bx B"
bx A"
bx @"
bx ?"
bx >"
bx ="
bx <"
bx ;"
bx :"
bx 9"
bx 8"
bx 7"
bx 6"
bx 5"
bx 4"
bx 3"
bx 2"
bx 1"
bx 0"
bx /"
bx ."
x-"
bx ,"
bx +"
bx *"
bx )"
x("
bx '"
bx &"
bx %"
bx $"
bx #"
bx ""
bx !"
bx ~
bx }
bx |
bx {
bx z
bx y
xx
xw
xv
bx u
xt
bx s
bx r
bx q
xp
xo
xn
bx m
bx l
bx k
bx j
xi
bx h
bx g
bx f
xe
bx d
bx c
bx b
xa
x`
bx _
x^
bx ]
bx \
bx [
bx Z
xY
xX
xW
xV
bx U
bx T
bx S
bx R
xQ
xP
bx O
bx N
bx M
bx L
xK
bx J
bx I
bx H
bx G
bx F
bx E
b0 D
xC
xB
xA
bx @
bx ?
x>
bx =
x<
bx ;
bx :
bx 9
bx 8
bx 7
bx 6
x5
bx 4
bx 3
bx 2
x1
bx 0
bx /
bx .
bx -
x,
x+
bx *
bx )
bx (
b110111010 '
b1101 &
bx %
b10000000000000000000000000000011 $
0#
0"
b110000 !
$end
#500
0K
b100 9
b100 $#
b0 0
b0 Y#
b10011 J
b10011 B#
b10011 J#
b100 L
b100 |"
b100 A#
b100 \#
b0 2
b0 V#
b0 X#
b0 (
b0 @#
b0 )"
b0 I#
b0 [#
1"
#1000
0"
#1500
1Q
0W
0,
b0 Z
b0 R"
b0 )#
0`
0Y
0X
b11 b
b11 S"
b11 &#
0V
b11011 _
1a
1P
0##
0"#
0+
b11011 T"
b0 M
b0 .#
b0 H#
b10011 G#
b0 T
b0 +#
b0 R
b0 /#
b0 ^#
b0 N
b0 {"
b0 -#
b0 `#
b0 S
b0 0#
b0 ]#
b0 O
b0 z"
b0 ,#
b0 _#
b0 ]
b0 '#
b0 \
b0 (#
b10011 U
b10011 Q"
b10011 y"
b10011 *#
0^
b10011 [
b10011 D#
b10011 F#
b100 c
b100 1#
b100 E#
b0 d
b0 2#
b0 C#
1"
#2000
0"
#2500
b0 $"
b0 M"
b0 Z"
b0 w"
b0 #"
b0 @"
b0 I"
1v
b0 z
b0 2"
b0 \"
b0 /
b0 7"
b0 ="
b0 .
b0 <"
b0 >"
b0 '"
b0 L"
b0 ~
b0 0"
b0 v"
b0 !"
b0 :"
b0 u"
b0 ""
b0 5"
b0 t"
0t
b0 %"
b0 ;"
b0 H"
b0 &"
b0 ?"
b0 E"
0e
b0 {
b0 P"
b0 ["
b0 x"
b10011 m
b10011 `"
b10011 s"
b10011 ~"
b10011 8#
b0 l
b0 ^"
b0 }"
b0 :#
b0 g
b0 ]"
b0 q"
b0 >#
b0 h
b0 r"
b0 =#
b0 j
b0 1"
b0 G"
b0 <#
b0 k
b0 6"
b0 ;#
b0 C"
b0 s
b0 B"
b0 b"
b0 5#
b0 r
b0 A"
b0 6#
b0 -
b0 K"
b0 *
b0 J"
b0 f
b0 F"
b0 N"
b0 ?#
1i
0o
0n
0p
b0 q
b0 a"
b0 !#
b0 7#
1x
b11 y
b11 D"
b11 4#
b11011 u
0w
b100 |
b100 _"
b100 9#
b0 }
b0 O"
b0 3#
1"
#3000
0"
#3500
0-"
b0 ,"
b0 U"
b0 ;
b0 V"
b0 e#
b0 W"
0("
b0 )
b0 ."
b0 3"
b0 8"
b0 +"
b0 =
b0 j"
b0 n"
b0 ?
b0 i"
b0 m"
b0 O#
b10011 @
b10011 f"
b10011 l"
b10011 M#
1>
0A
b0 F
b0 d"
b0 :
b0 k"
b0 c#
b0 G
b0 X"
b0 c"
b0 K#
0B
b0 E
b0 e"
b0 L#
0C
0<
b0 H
b0 h"
b100 I
b100 g"
b100 N#
1"
#4000
0"
#4500
b0 *"
b0 /"
b0 4"
b0 9"
b0 a#
b0 d#
b10011 4
b10011 p"
b10011 S#
b0 3
b0 o"
b0 U#
b0 b#
b0 7
b0 Q#
b0 W#
11
05
b0 6
b0 R#
b100 8
b100 T#
1"
#5000
0"
#5500
1"
#6000
0"
1#
#6500
b1000 9
b1000 $#
b11000000000000000000100000110111 J
b11000000000000000000100000110111 B#
b11000000000000000000100000110111 J#
b1000 L
b1000 |"
b1000 A#
b1000 \#
b100 (
b100 @#
b100 )"
b100 I#
b100 [#
1"
#7000
0"
#7500
b11 _
b0 b
b0 S"
b0 &#
b1100 9
b1100 $#
b11 T"
b11100000000000000000100010110111 J
b11100000000000000000100010110111 B#
b11100000000000000000100010110111 J#
b1100 L
b1100 |"
b1100 A#
b1100 \#
b11000000000000000000000000000000 M
b11000000000000000000000000000000 .#
b11000000000000000000000000000000 H#
b110111 G#
b10000 T
b10000 +#
b1100000 \
b1100000 (#
b110111 U
b110111 Q"
b110111 y"
b110111 *#
b1000 (
b1000 @#
b1000 )"
b1000 I#
b1000 [#
b11000000000000000000100000110111 [
b11000000000000000000100000110111 D#
b11000000000000000000100000110111 F#
b1000 c
b1000 1#
b1000 E#
b100 d
b100 2#
b100 C#
1"
#8000
0"
#8500
0v
b11000000000000000000000000000000 #"
b11000000000000000000000000000000 @"
b11000000000000000000000000000000 I"
b11000000000000000000000000000000 $"
b11000000000000000000000000000000 M"
b11000000000000000000000000000000 Z"
b11000000000000000000000000000000 w"
b11000000000000000000000000000000 .
b11000000000000000000000000000000 <"
b11000000000000000000000000000000 >"
b10000 9
b10000 $#
b11100000000000000000000000000000 M
b11100000000000000000000000000000 .#
b11100000000000000000000000000000 H#
b10001 T
b10001 +#
b1110000 \
b1110000 (#
b1 '"
b1 L"
b1000 C"
b11000000000000000000000000000000 %"
b11000000000000000000000000000000 ;"
b11000000000000000000000000000000 H"
b11000000000000000000000000000100 {
b11000000000000000000000000000100 P"
b11000000000000000000000000000100 ["
b11000000000000000000000000000100 x"
b11110000000000000000100100110111 J
b11110000000000000000100100110111 B#
b11110000000000000000100100110111 J#
b10000 L
b10000 |"
b10000 A#
b10000 \#
b11100000000000000000100010110111 [
b11100000000000000000100010110111 D#
b11100000000000000000100010110111 F#
b1100 c
b1100 1#
b1100 E#
b1000 d
b1000 2#
b1000 C#
b110111 m
b110111 `"
b110111 s"
b110111 ~"
b110111 8#
b10000 l
b10000 ^"
b10000 }"
b10000 :#
b1100000 r
b1100000 A"
b1100000 6#
b11000000000000000000000000000000 *
b11000000000000000000000000000000 J"
b11000000000000000000000000000000 f
b11000000000000000000000000000000 F"
b11000000000000000000000000000000 N"
b11000000000000000000000000000000 ?#
b11 u
b0 y
b0 D"
b0 4#
b1000 |
b1000 _"
b1000 9#
b11000000000000000000000000000100 -
b11000000000000000000000000000100 K"
b100 }
b100 O"
b100 3#
b1100 (
b1100 @#
b1100 )"
b1100 I#
b1100 [#
1"
#9000
0"
#9500
b11100000000000000000000000000000 #"
b11100000000000000000000000000000 @"
b11100000000000000000000000000000 I"
b11100000000000000000000000000000 .
b11100000000000000000000000000000 <"
b11100000000000000000000000000000 >"
b10100 9
b10100 $#
b11000000000000000000100110010111 J
b11000000000000000000100110010111 B#
b11000000000000000000100110010111 J#
b10100 L
b10100 |"
b10100 A#
b10100 \#
b11000000000000000000000000000000 )
b11000000000000000000000000000000 ."
b11000000000000000000000000000000 3"
b11000000000000000000000000000000 8"
b11000000000000000000000000000000 +"
b11100000000000000000000000000000 %"
b11100000000000000000000000000000 ;"
b11100000000000000000000000000000 H"
b11100000000000000000000000000000 $"
b11100000000000000000000000000000 M"
b11100000000000000000000000000000 Z"
b11100000000000000000000000000000 w"
b11100000000000000000000000001000 {
b11100000000000000000000000001000 P"
b11100000000000000000000000001000 ["
b11100000000000000000000000001000 x"
b11110000000000000000000000000000 M
b11110000000000000000000000000000 .#
b11110000000000000000000000000000 H#
b10010 T
b10010 +#
b1111000 \
b1111000 (#
b10000 (
b10000 @#
b10000 )"
b10000 I#
b10000 [#
b10000 ?
b10000 i"
b10000 m"
b10000 O#
b110111 @
b110111 f"
b110111 l"
b110111 M#
b11000000000000000000000000000000 G
b11000000000000000000000000000000 X"
b11000000000000000000000000000000 c"
b11000000000000000000000000000000 K#
b11000000000000000000000000000100 H
b11000000000000000000000000000100 h"
b1000 I
b1000 g"
b1000 N#
b10001 l
b10001 ^"
b10001 }"
b10001 :#
b1110000 r
b1110000 A"
b1110000 6#
b11100000000000000000000000000000 *
b11100000000000000000000000000000 J"
b11100000000000000000000000000000 f
b11100000000000000000000000000000 F"
b11100000000000000000000000000000 N"
b11100000000000000000000000000000 ?#
b1100 |
b1100 _"
b1100 9#
b11100000000000000000000000001000 -
b11100000000000000000000000001000 K"
b1000 }
b1000 O"
b1000 3#
b11110000000000000000100100110111 [
b11110000000000000000100100110111 D#
b11110000000000000000100100110111 F#
b10000 c
b10000 1#
b10000 E#
b1100 d
b1100 2#
b1100 C#
1"
#10000
0"
#10500
b11110000000000000000000000000000 #"
b11110000000000000000000000000000 @"
b11110000000000000000000000000000 I"
b11110000000000000000000000000000 .
b11110000000000000000000000000000 <"
b11110000000000000000000000000000 >"
b11000000000000000000000000000000 *"
b11000000000000000000000000000000 /"
b11000000000000000000000000000000 4"
b11000000000000000000000000000000 9"
b11000000000000000000000000000000 a#
b11000000000000000000000000000000 d#
b11000 9
b11000 $#
b11000000000000000000000000000000 M
b11000000000000000000000000000000 .#
b11000000000000000000000000000000 H#
b10111 G#
b10011 T
b10011 +#
b1100000 \
b1100000 (#
b10111 U
b10111 Q"
b10111 y"
b10111 *#
b11110000000000000000000000000000 %"
b11110000000000000000000000000000 ;"
b11110000000000000000000000000000 H"
b11110000000000000000000000000000 $"
b11110000000000000000000000000000 M"
b11110000000000000000000000000000 Z"
b11110000000000000000000000000000 w"
b11110000000000000000000000001100 {
b11110000000000000000000000001100 P"
b11110000000000000000000000001100 ["
b11110000000000000000000000001100 x"
b11100000000000000000000000000000 )
b11100000000000000000000000000000 ."
b11100000000000000000000000000000 3"
b11100000000000000000000000000000 8"
b11100000000000000000000000000000 +"
b11000000000000000000000000000000 0
b11000000000000000000000000000000 Y#
b11100000000000000000101000010111 J
b11100000000000000000101000010111 B#
b11100000000000000000101000010111 J#
b11000 L
b11000 |"
b11000 A#
b11000 \#
b11000000000000000000100110010111 [
b11000000000000000000100110010111 D#
b11000000000000000000100110010111 F#
b10100 c
b10100 1#
b10100 E#
b10000 d
b10000 2#
b10000 C#
b10010 l
b10010 ^"
b10010 }"
b10010 :#
b1111000 r
b1111000 A"
b1111000 6#
b11110000000000000000000000000000 *
b11110000000000000000000000000000 J"
b11110000000000000000000000000000 f
b11110000000000000000000000000000 F"
b11110000000000000000000000000000 N"
b11110000000000000000000000000000 ?#
b10000 |
b10000 _"
b10000 9#
b11110000000000000000000000001100 -
b11110000000000000000000000001100 K"
b1100 }
b1100 O"
b1100 3#
b10001 ?
b10001 i"
b10001 m"
b10001 O#
b11100000000000000000000000000000 G
b11100000000000000000000000000000 X"
b11100000000000000000000000000000 c"
b11100000000000000000000000000000 K#
b11100000000000000000000000001000 H
b11100000000000000000000000001000 h"
b1100 I
b1100 g"
b1100 N#
b110111 4
b110111 p"
b110111 S#
b10000 3
b10000 o"
b10000 U#
b10000 b#
b11000000000000000000000000000000 7
b11000000000000000000000000000000 Q#
b11000000000000000000000000000000 W#
b1000 8
b1000 T#
b10100 (
b10100 @#
b10100 )"
b10100 I#
b10100 [#
1"
#11000
0"
#11500
b11000000000000000000000000000000 #"
b11000000000000000000000000000000 @"
b11000000000000000000000000000000 I"
b11100000000000000000000000000000 *"
b11100000000000000000000000000000 /"
b11100000000000000000000000000000 4"
b11100000000000000000000000000000 9"
b11100000000000000000000000000000 a#
b11100000000000000000000000000000 d#
b11000000000000000000000000000000 .
b11000000000000000000000000000000 <"
b11000000000000000000000000000000 >"
b11100 9
b11100 $#
b11110000000000000000101010010111 J
b11110000000000000000101010010111 B#
b11110000000000000000101010010111 J#
b11100 L
b11100 |"
b11100 A#
b11100 \#
b11100000000000000000000000000000 0
b11100000000000000000000000000000 Y#
b11110000000000000000000000000000 )
b11110000000000000000000000000000 ."
b11110000000000000000000000000000 3"
b11110000000000000000000000000000 8"
b11110000000000000000000000000000 +"
b10 '"
b10 L"
b11000000000000000000000000000000 %"
b11000000000000000000000000000000 ;"
b11000000000000000000000000000000 H"
b11000000000000000000000000010000 $"
b11000000000000000000000000010000 M"
b11000000000000000000000000010000 Z"
b11000000000000000000000000010000 w"
b11000000000000000000000000010000 {
b11000000000000000000000000010000 P"
b11000000000000000000000000010000 ["
b11000000000000000000000000010000 x"
b11100000000000000000000000000000 M
b11100000000000000000000000000000 .#
b11100000000000000000000000000000 H#
b10100 T
b10100 +#
b1110000 \
b1110000 (#
b11000 (
b11000 @#
b11000 )"
b11000 I#
b11000 [#
b10001 3
b10001 o"
b10001 U#
b10001 b#
b11100000000000000000000000000000 7
b11100000000000000000000000000000 Q#
b11100000000000000000000000000000 W#
b1100 8
b1100 T#
b10010 ?
b10010 i"
b10010 m"
b10010 O#
b11110000000000000000000000000000 G
b11110000000000000000000000000000 X"
b11110000000000000000000000000000 c"
b11110000000000000000000000000000 K#
b11110000000000000000000000001100 H
b11110000000000000000000000001100 h"
b10000 I
b10000 g"
b10000 N#
b10111 m
b10111 `"
b10111 s"
b10111 ~"
b10111 8#
b10011 l
b10011 ^"
b10011 }"
b10011 :#
b1100000 r
b1100000 A"
b1100000 6#
b11000000000000000000000000000000 *
b11000000000000000000000000000000 J"
b11000000000000000000000000000000 f
b11000000000000000000000000000000 F"
b11000000000000000000000000000000 N"
b11000000000000000000000000000000 ?#
b10100 |
b10100 _"
b10100 9#
b11000000000000000000000000010000 -
b11000000000000000000000000010000 K"
b10000 }
b10000 O"
b10000 3#
b11100000000000000000101000010111 [
b11100000000000000000101000010111 D#
b11100000000000000000101000010111 F#
b11000 c
b11000 1#
b11000 E#
b10100 d
b10100 2#
b10100 C#
1"
#12000
0"
